{
  "host": "localhost",
  "port": "8888",
  "tokenSecret": "Telepound",
  "tokenExpires": "14d",
  "database": {
    "url": "mongodb://127.0.0.1:27017/telepound",
    "options": {}
  },
  "cloudinary": {
    "cloudName": "da3mjtcz1",
    "apiKey": "656392233896817",
    "apiSecret": "s6YxmOozh17Kbzobjra7dNNj4EI"
  }
}